rlast_bug.vcd
$date Fri Nov 17 22:00:07 2023
 $end
$version JasperGold $end
$timescale 1 ns $end
$scope module packet_parser $end
$scope module pp_mem $end
$scope module slave_axi_cont_inmem $end
$var wire 32 ! ADDR_O [31:0] $end
$var wire 32 " DATA_O [31:0] $end
$var wire 4 # WR_O [3:0] $end
$var wire 32 $ DATA_I [31:0] $end
$var wire 1 % S_AXI_ARESETN $end
$var wire 32 & S_AXI_AWADDR [31:0] $end
$var wire 8 ' S_AXI_AWLEN [7:0] $end
$var wire 2 ( S_AXI_AWBURST [1:0] $end
$var wire 1 ) S_AXI_AWVALID $end
$var wire 1 * S_AXI_AWREADY $end
$var wire 32 + S_AXI_WDATA [31:0] $end
$var wire 4 , S_AXI_WSTRB [3:0] $end
$var wire 1 - S_AXI_WLAST $end
$var wire 1 . S_AXI_WVALID $end
$var wire 1 / S_AXI_WREADY $end
$var wire 1 0 S_AXI_BVALID $end
$var wire 1 1 S_AXI_BREADY $end
$var wire 32 2 S_AXI_ARADDR [31:0] $end
$var wire 8 3 S_AXI_ARLEN [7:0] $end
$var wire 2 4 S_AXI_ARBURST [1:0] $end
$var wire 1 5 S_AXI_ARVALID $end
$var wire 1 6 S_AXI_ARREADY $end
$var wire 32 7 S_AXI_RDATA [31:0] $end
$var wire 1 8 S_AXI_RLAST $end
$var wire 1 9 S_AXI_RVALID $end
$var wire 1 : S_AXI_RREADY $end
$var reg 32 ; axi_awaddr [31:0] $end
$var reg 1 < axi_awready $end
$var reg 1 = axi_wready $end
$var reg 1 > axi_bvalid $end
$var reg 32 ? axi_araddr [31:0] $end
$var reg 1 @ axi_arready $end
$var wire 32 A axi_rdata [31:0] $end
$var reg 1 B axi_rlast $end
$var reg 1 C axi_rvalid $end
$var wire 1 D aw_wrap_en $end
$var wire 1 E ar_wrap_en $end
$var wire 32 F aw_wrap_size [31:0] $end
$var wire 32 G ar_wrap_size [31:0] $end
$var reg 1 H axi_awv_awr_flag $end
$var reg 1 I axi_arv_arr_flag $end
$var reg 8 J axi_awlen_cntr [7:0] $end
$var reg 8 K axi_arlen_cntr [7:0] $end
$var reg 2 L axi_arburst [1:0] $end
$var reg 2 M axi_awburst [1:0] $end
$var reg 8 N axi_arlen [7:0] $end
$var reg 8 O axi_awlen [7:0] $end
$var wire 1 P S_AXI_ACLK $end
$upscope $end
$scope module inmem_bram $end
$var wire 1 Q reset $end
$var wire 1 R en_a_i $end
$var wire 1 S en_b_i $end
$var wire 32 T data_a_i [31:0] $end
$var wire 32 U data_b_i [31:0] $end
$var wire 14 V addr_a_i [13:0] $end
$var wire 14 W addr_b_i [13:0] $end
$var wire 4 X we_a_i [3:0] $end
$var wire 4 Y we_b_i [3:0] $end
$var wire 32 Z data_a_o [31:0] $end
$var reg 8 [ \ram_s(0) [7:0] $end
$var reg 8 \ \ram_s(1) [7:0] $end
$var reg 8 ] \ram_s(2) [7:0] $end
$var reg 8 ^ \ram_s(3) [7:0] $end
$var reg 8 _ \ram_s(4) [7:0] $end
$var reg 8 ` \ram_s(5) [7:0] $end
$var reg 8 a \ram_s(6) [7:0] $end
$var reg 8 b \ram_s(7) [7:0] $end
$var reg 8 c \ram_s(8) [7:0] $end
$var reg 8 d \ram_s(9) [7:0] $end
$var reg 8 e \ram_s(10) [7:0] $end
$var reg 8 f \ram_s(11) [7:0] $end
$var reg 8 g \ram_s(12) [7:0] $end
$var reg 8 h \ram_s(13) [7:0] $end
$var reg 8 i \ram_s(14) [7:0] $end
$var reg 8 j \ram_s(15) [7:0] $end
$var reg 8 k \ram_s(16) [7:0] $end
$var reg 8 l \ram_s(17) [7:0] $end
$var reg 8 m \ram_s(18) [7:0] $end
$var reg 8 n \ram_s(19) [7:0] $end
$var wire 96 o \:X_2174 [95:0] $end
$var wire 96 p \:X_2173 [95:0] $end
$var wire 1 q clk $end
$upscope $end
$var wire 1 r S_AXI_ARESETN $end
$var wire 1 s en_b_i $end
$var wire 32 t data_b_i [31:0] $end
$var wire 14 u addr_b_i [13:0] $end
$var wire 4 v we_b_i [3:0] $end
$var wire 32 w S_AXI_AWADDR [31:0] $end
$var wire 8 x S_AXI_AWLEN [7:0] $end
$var wire 2 y S_AXI_AWBURST [1:0] $end
$var wire 1 z S_AXI_AWVALID $end
$var wire 1 { S_AXI_AWREADY $end
$var wire 32 | S_AXI_WDATA [31:0] $end
$var wire 4 } S_AXI_WSTRB [3:0] $end
$var wire 1 ~ S_AXI_WLAST $end
$var wire 1 !! S_AXI_WVALID $end
$var wire 1 "! S_AXI_WREADY $end
$var wire 1 #! S_AXI_BVALID $end
$var wire 1 $! S_AXI_BREADY $end
$var wire 32 %! S_AXI_ARADDR [31:0] $end
$var wire 8 &! S_AXI_ARLEN [7:0] $end
$var wire 2 '! S_AXI_ARBURST [1:0] $end
$var wire 1 (! S_AXI_ARVALID $end
$var wire 1 )! S_AXI_ARREADY $end
$var wire 32 *! S_AXI_RDATA [31:0] $end
$var wire 1 +! S_AXI_RLAST $end
$var wire 1 ,! S_AXI_RVALID $end
$var wire 1 -! S_AXI_RREADY $end
$var wire 32 .! data_a_i_s [31:0] $end
$var wire 32 /! data_a_o_s [31:0] $end
$var wire 32 0! addr_a_s [31:0] $end
$var wire 4 1! we_a_s [3:0] $end
$var wire 1 2! S_AXI_ACLK $end
$upscope $end
$scope module master_axi_cont_ctrl $end
$var wire 1 3! \:tmp_abstr_free_x_:md_0(12) $end
$var wire 1 4! \:tmp_abstr_free_z_:md_0(9) $end
$var wire 1 5! \:tmp_abstr_free_x_:md_0(29) $end
$var wire 1 6! \:tmp_abstr_free_z_:md_0(2) $end
$var wire 1 7! \:tmp_abstr_free_z_:md_0(0) $end
$var wire 1 8! \:tmp_abstr_free_x_:md_0(28) $end
$var wire 1 9! \:tmp_abstr_free_x_:md_0(16) $end
$var wire 1 :! \:tmp_abstr_free_z_:md_0(16) $end
$var wire 1 ;! \:tmp_abstr_free_z_:md_0(14) $end
$var wire 1 <! \:tmp_abstr_free_z_:md_0(23) $end
$var wire 1 =! \:tmp_abstr_free_z_:md_0(19) $end
$var wire 1 >! \:tmp_abstr_free_x_:md_0(24) $end
$var wire 1 ?! \:tmp_abstr_free_z_:md_0(24) $end
$var wire 1 @! \:tmp_abstr_free_z_:md_0(1) $end
$var wire 1 A! \:tmp_abstr_free_x_:md_0(21) $end
$var wire 1 B! \:tmp_abstr_free_x_:md_0(25) $end
$var wire 1 C! \:tmp_abstr_free_x_:md_0(2) $end
$var wire 1 D! \:tmp_abstr_free_z_:md_0(6) $end
$var wire 1 E! \:tmp_abstr_free_x_:md_0(1) $end
$var wire 1 F! \:tmp_abstr_free_x_:md_0(17) $end
$var wire 1 G! \:tmp_abstr_free_z_:md_0(17) $end
$var wire 1 H! \:tmp_abstr_free_x_:md_0(18) $end
$var wire 1 I! \:tmp_abstr_free_z_:md_0(18) $end
$var wire 1 J! \:tmp_abstr_free_z_:md_0(4) $end
$var wire 1 K! \:tmp_abstr_free_z_:md_0(15) $end
$var wire 1 L! \:tmp_abstr_free_x_:md_0(0) $end
$var wire 1 M! \:tmp_abstr_free_x_:md_0(15) $end
$var wire 1 N! \:tmp_abstr_free_z_:md_0(26) $end
$var wire 1 O! \:tmp_abstr_free_x_:md_0(14) $end
$var wire 1 P! \:tmp_abstr_free_x_:md_0(20) $end
$var wire 1 Q! \:tmp_abstr_free_z_:md_0(20) $end
$var wire 1 R! \:tmp_abstr_free_x_:md_0(23) $end
$var wire 1 S! \:tmp_abstr_free_z_:md_0(27) $end
$var wire 1 T! \:tmp_abstr_free_z_:md_0(21) $end
$var wire 1 U! \:tmp_abstr_free_x_:md_0(31) $end
$var wire 1 V! \:tmp_abstr_free_x_:md_0(26) $end
$var wire 1 W! \:tmp_abstr_free_x_:md_0(3) $end
$var wire 1 X! \:tmp_abstr_free_x_:md_0(4) $end
$var wire 1 Y! \:tmp_abstr_free_x_:md_0(30) $end
$var wire 1 Z! \:tmp_abstr_free_z_:md_0(10) $end
$var wire 1 [! \:tmp_abstr_free_z_:md_0(12) $end
$var wire 1 \! \:tmp_abstr_free_z_:md_0(13) $end
$var wire 1 ]! \:tmp_abstr_free_x_:md_0(13) $end
$var wire 1 ^! \:tmp_abstr_free_z_:md_0(11) $end
$var wire 1 _! \:tmp_abstr_free_x_:md_0(9) $end
$var wire 1 `! \:tmp_abstr_free_x_:md_0(19) $end
$var wire 1 a! \:tmp_abstr_free_x_:md_0(22) $end
$var wire 1 b! \:tmp_abstr_free_x_:md_0(10) $end
$var wire 1 c! \:tmp_abstr_free_z_:md_0(29) $end
$var wire 1 d! \:tmp_abstr_free_z_:md_0(28) $end
$var wire 1 e! \:tmp_abstr_free_z_:md_0(30) $end
$var wire 1 f! \:tmp_abstr_free_z_:md_0(3) $end
$var wire 1 g! \:tmp_abstr_free_z_:md_0(8) $end
$var wire 1 h! \:tmp_abstr_free_x_:md_0(27) $end
$var wire 1 i! \:tmp_abstr_free_x_:md_0(7) $end
$var wire 1 j! \:tmp_abstr_free_z_:md_0(7) $end
$var wire 1 k! \:tmp_abstr_free_z_:md_0(25) $end
$var wire 1 l! \:tmp_abstr_free_x_:md_0(11) $end
$var wire 32 m! AXI_BASE_ADDRESS_I [31:0] $end
$var wire 8 n! AXI_BURST_LEN [7:0] $end
$var wire 1 o! AXI_WRITE_INIT_I $end
$var wire 32 p! AXI_WRITE_ADDRESS_I [31:0] $end
$var wire 32 q! AXI_WRITE_DATA_I [31:0] $end
$var wire 4 r! AXI_WRITE_STRB_I [3:0] $end
$var wire 1 s! AXI_READ_INIT_I $end
$var wire 32 t! AXI_READ_ADDRESS_I [31:0] $end
$var wire 32 u! AXI_READ_DATA_O [31:0] $end
$var wire 1 v! AXI_READ_VLD_O $end
$var wire 1 w! AXI_READ_RDY_I $end
$var wire 1 x! AXI_READ_LAST_O $end
$var wire 1 y! M_AXI_ARESETN $end
$var wire 32 z! M_AXI_AWADDR [31:0] $end
$var wire 8 {! M_AXI_AWLEN [7:0] $end
$var wire 2 |! M_AXI_AWBURST [1:0] $end
$var wire 1 }! M_AXI_AWVALID $end
$var wire 1 ~! M_AXI_AWREADY $end
$var wire 32 !" M_AXI_WDATA [31:0] $end
$var wire 4 "" M_AXI_WSTRB [3:0] $end
$var wire 1 #" M_AXI_WLAST $end
$var wire 1 $" M_AXI_WVALID $end
$var wire 1 %" M_AXI_WREADY $end
$var wire 1 &" M_AXI_BVALID $end
$var wire 1 '" M_AXI_BREADY $end
$var wire 32 (" M_AXI_ARADDR [31:0] $end
$var wire 8 )" M_AXI_ARLEN [7:0] $end
$var wire 2 *" M_AXI_ARBURST [1:0] $end
$var wire 1 +" M_AXI_ARVALID $end
$var wire 1 ," M_AXI_ARREADY $end
$var wire 32 -" M_AXI_RDATA [31:0] $end
$var wire 1 ." M_AXI_RLAST $end
$var wire 1 /" M_AXI_RVALID $end
$var wire 1 0" M_AXI_RREADY $end
$var wire 32 1" axi_awaddr [31:0] $end
$var reg 1 2" axi_awvalid $end
$var wire 32 3" axi_wdata [31:0] $end
$var reg 1 4" axi_wlast $end
$var reg 1 5" axi_wvalid $end
$var reg 1 6" axi_bready $end
$var wire 32 7" axi_araddr [31:0] $end
$var reg 1 8" axi_arvalid $end
$var wire 1 9" axi_rready $end
$var reg 8 :" write_index [7:0] $end
$var reg 1 ;" start_single_burst_write $end
$var reg 1 <" start_single_burst_read $end
$var reg 1 =" burst_write_active $end
$var reg 1 >" burst_read_active $end
$var wire 1 ?" wnext $end
$var wire 1 @" rnext $end
$var reg 1 A" init_write_txn_ff $end
$var reg 1 B" init_write_txn_ff2 $end
$var wire 1 C" init_write_txn_pulse $end
$var reg 1 D" init_read_txn_ff $end
$var reg 1 E" init_read_txn_ff2 $end
$var wire 1 F" init_read_txn_pulse $end
$var wire 1 G" \:tmp_abstr_free_x_:md_0(5) $end
$var wire 1 H" \:tmp_abstr_free_z_:md_0(5) $end
$var wire 1 I" \:tmp_abstr_free_x_:md_0(6) $end
$var wire 1 J" \:tmp_abstr_free_x_:md_0(8) $end
$var wire 1 K" \:tmp_abstr_free_z_:md_0(22) $end
$var wire 1 L" \:tmp_abstr_free_z_:md_0(31) $end
$var wire 1 M" M_AXI_ACLK $end
$upscope $end
$scope module crc_calc $end
$var wire 1 N" reset $end
$var wire 1 O" start_crc $end
$var wire 2 P" pulse_cnt_max [1:0] $end
$var wire 2 Q" vld_bytes_last_pulse_cnt [1:0] $end
$var wire 1 R" crc_ready $end
$var reg 3 S" state_reg [2:0] $end
$var wire 3 T" state_next [2:0] $end
$var reg 5 U" shift_cnt_reg [4:0] $end
$var wire 5 V" shift_cnt_next [4:0] $end
$var reg 2 W" pulse_cnt_reg [1:0] $end
$var wire 2 X" pulse_cnt_next [1:0] $end
$var wire 1 Y" clk $end
$upscope $end
$scope module hamming_chk $end
$var wire 8 Z" data_in [7:0] $end
$var wire 4 [" parity_in [3:0] $end
$var wire 4 \" parity_check_out [3:0] $end
$upscope $end
$var wire 1 ]" \:jasper_formal_reset $end
$var wire 1 ^" start_i $end
$var wire 32 _" addr_hdr_i [31:0] $end
$var wire 1 `" ignore_ecc_err_i $end
$var wire 1 a" M_AXI_ARESETN $end
$var wire 32 b" M_AXI_AWADDR [31:0] $end
$var wire 8 c" M_AXI_AWLEN [7:0] $end
$var wire 2 d" M_AXI_AWBURST [1:0] $end
$var wire 1 e" M_AXI_AWVALID $end
$var wire 1 f" M_AXI_AWREADY $end
$var wire 32 g" M_AXI_WDATA [31:0] $end
$var wire 4 h" M_AXI_WSTRB [3:0] $end
$var wire 1 i" M_AXI_WLAST $end
$var wire 1 j" M_AXI_WVALID $end
$var wire 1 k" M_AXI_WREADY $end
$var wire 1 l" M_AXI_BVALID $end
$var wire 1 m" M_AXI_BREADY $end
$var wire 32 n" M_AXI_ARADDR [31:0] $end
$var wire 8 o" M_AXI_ARLEN [7:0] $end
$var wire 2 p" M_AXI_ARBURST [1:0] $end
$var wire 1 q" M_AXI_ARVALID $end
$var wire 1 r" M_AXI_ARREADY $end
$var wire 32 s" M_AXI_RDATA [31:0] $end
$var wire 1 t" M_AXI_RLAST $end
$var wire 1 u" M_AXI_RVALID $end
$var wire 1 v" M_AXI_RREADY $end
$var wire 8 w" axi_burst_len_s [7:0] $end
$var wire 32 x" axi_base_address_s [31:0] $end
$var wire 32 y" axi_write_address_s [31:0] $end
$var wire 1 z" axi_write_init_s $end
$var wire 32 {" axi_write_data_s [31:0] $end
$var wire 4 |" axi_write_strb_s [3:0] $end
$var wire 32 }" axi_read_address_s [31:0] $end
$var wire 1 ~" axi_read_init_next $end
$var reg 1 !# axi_read_init_reg $end
$var wire 32 "# axi_read_data_s [31:0] $end
$var wire 1 ## axi_read_vld_s $end
$var wire 1 $# axi_read_rdy_s $end
$var wire 1 %# axi_read_last_s $end
$var reg 2 &# state_reg [1:0] $end
$var wire 2 '# state_next [1:0] $end
$var wire 5 (# byte_cnt_with_crc_s [4:0] $end
$var reg 4 )# pkt_byte_cnt_o_reg [3:0] $end
$var wire 4 *# pkt_byte_cnt_o_next [3:0] $end
$var wire 1 +# start_crc_s $end
$var wire 1 ,# crc_ready_s $end
$var wire 8 -# burst_len_with_crc_s [7:0] $end
$var wire 8 .# hamming_data_in_s [7:0] $end
$var wire 4 /# hamming_parity_in_s [3:0] $end
$var wire 1 0# hamming_msb_parity_bit_s $end
$var wire 4 1# hamming_parity_check_out_s [3:0] $end
$var reg 5 2# \chk_axi_pp.handshake_cnt_r [4:0] $end
$var reg 1 3# \chk_axi_pp.ast_r_data_rlast $end
$var wire 1 4# \:jasper_formal_clock $end
$var wire 1 5# M_AXI_ACLK $end
$upscope $end
$enddefinitions $end
#0
b00000000000000000000000000000000 !
b00000000000000000000000000000000 "
b0000 #
b00000000000000000000000000000000 $
0%
b00000000000000000000000000000000 &
b00000000 '
b01 (
0)
0*
b00000000000000000000000000000000 +
b0000 ,
0-
0.
0/
00
01
b00000000000000000000000000000000 2
b00000000 3
b01 4
05
06
b00000000000000000000000000000000 7
08
09
0:
b00000000000000000000000000000000 ;
0<
0=
0>
b00000000000000000000000000000000 ?
0@
b00000000000000000000000000000000 A
0B
0C
1D
1E
b00000000000000000000000000000000 F
b00000000000000000000000000000000 G
0H
0I
b00000000 J
b00000000 K
b00 L
b00 M
b00000000 N
b00000000 O
1P
0Q
1R
1S
b00000000000000000000000000000000 T
b00011111111111110001111111111111 U
b00000000000000 V
b00000000001110 W
b0000 X
b1111 Y
b00000000000000000000000000000000 Z
b00000000 [
b00000000 \
b00000000 ]
b00000000 ^
b00000000 _
b00000000 `
b00000000 a
b00000000 b
b00000000 c
b00000000 d
b00000000 e
b00000000 f
b00000000 g
b00000000 h
b00000000 i
b00000000 j
b00000000 k
b00000000 l
b00000000 m
b00000000 n
b111111111111111111111111111111111111111111111111111111111111111111111111111111111111111111111111 o
b000111110001111100011111000111110001111100011111000111110001111100011111000111110001111100011111 p
1q
0r
1s
b00011111111111110001111111111111 t
b00000000001110 u
b1111 v
b00000000000000000000000000000000 w
b00000000 x
b01 y
0z
0{
b00000000000000000000000000000000 |
b0000 }
0~
0!!
0"!
0#!
0$!
b00000000000000000000000000000000 %!
b00000000 &!
b01 '!
0(!
0)!
b00000000000000000000000000000000 *!
0+!
0,!
0-!
b00000000000000000000000000000000 .!
b00000000000000000000000000000000 /!
b00000000000000000000000000000000 0!
b0000 1!
12!
03!
04!
05!
06!
07!
08!
09!
0:!
0;!
0<!
0=!
0>!
0?!
0@!
0A!
0B!
0C!
0D!
0E!
0F!
0G!
0H!
0I!
0J!
0K!
0L!
0M!
0N!
0O!
0P!
0Q!
0R!
0S!
0T!
0U!
0V!
0W!
0X!
0Y!
0Z!
0[!
0\!
0]!
0^!
0_!
0`!
0a!
0b!
0c!
0d!
0e!
0f!
0g!
0h!
0i!
0j!
0k!
0l!
b00000000000000000000000000000000 m!
b00000000 n!
0o!
b00000000000000000000000000000000 p!
b00000000000000000000000000000000 q!
b0000 r!
0s!
b00000000000000000000000000000000 t!
b00000000000000000000000000000000 u!
0v!
0w!
0x!
0y!
b00000000000000000000000000000000 z!
b00000000 {!
b01 |!
0}!
0~!
b00000000000000000000000000000000 !"
b0000 ""
0#"
0$"
0%"
0&"
0'"
b00000000000000000000000000000000 ("
b00000000 )"
b01 *"
0+"
0,"
b00000000000000000000000000000000 -"
0."
0/"
00"
b00000000000000000000000000000000 1"
02"
b00000000000000000000000000000000 3"
04"
05"
06"
b00000000000000000000000000000000 7"
08"
09"
b00000000 :"
0;"
0<"
0="
0>"
0?"
0@"
0A"
0B"
0C"
0D"
0E"
0F"
0G"
0H"
0I"
0J"
0K"
0L"
1M"
0N"
0O"
b00 P"
b00 Q"
0R"
b000 S"
b000 T"
b00000 U"
b00000 V"
b00 W"
b00 X"
1Y"
b00000000 Z"
b0000 ["
b0000 \"
0]"
1^"
b10111010101110101011101010111010 _"
0`"
0a"
b00000000000000000000000000000000 b"
b00000000 c"
b01 d"
0e"
0f"
b00000000000000000000000000000000 g"
b0000 h"
0i"
0j"
0k"
0l"
0m"
b00000000000000000000000000000000 n"
b00000000 o"
b01 p"
0q"
0r"
b00000000000000000000000000000000 s"
0t"
0u"
0v"
b00000000 w"
b00000000000000000000000000000000 x"
b00000000000000000000000000000000 y"
0z"
b00000000000000000000000000000000 {"
b0000 |"
b00000000000000000000000000000000 }"
1~"
0!#
b00000000000000000000000000000000 "#
0##
0$#
0%#
b00 &#
b01 '#
b00001 (#
b0000 )#
b0000 *#
0+#
0,#
b00000000 -#
b00000000 .#
b0000 /#
00#
b0000 1#
b00000 2#
13#
14#
15#
#5
0P
0q
02!
0M"
0Y"
04#
05#
#10
b10111010101110101011101010111010 2
1:
1P
b00011010000110100001111111111111 U
b00000000010010 W
b11111111 i
b00011111 j
b11111111 k
b00011111 l
1q
b00011010000110100001111111111111 t
b00000000010010 u
b10111010101110101011101010111010 %!
1-!
12!
1s!
b10111010101110101011101010111010 t!
1w!
b10111010101110101011101010111010 ("
10"
b10111010101110101011101010111010 7"
19"
1M"
1Y"
0^"
b10111010101110101011101010111010 n"
1v"
b10111010101110101011101010111010 }"
0~"
1!#
1$#
b01 &#
14#
15#
#15
0P
0q
02!
0M"
0Y"
04#
05#
#20
1P
b11111111000111111111111100011111 U
b00000000000101 W
b11111111 m
b00011111 n
1q
b11111111000111111111111100011111 t
b00000000000101 u
12!
0s!
1D"
1F"
1M"
1Y"
0!#
14#
15#
#25
0P
0q
02!
0M"
0Y"
04#
05#
#30
1P
b00011111000001010000000000000000 U
b00000000000110 W
b1000 Y
b00011111 `
b11111111 a
b00011111 b
b11111111 c
1q
b00011111000001010000000000000000 t
b00000000000110 u
b1000 v
12!
1<"
0D"
1E"
0F"
1M"
1Y"
14#
15#
#35
0P
0q
02!
0M"
0Y"
04#
05#
#40
15
1P
0S
b11111111000111111111011100011111 U
b00000000001011 W
b1111 Y
b00011111 d
1q
0s
b11111111000111111111011100011111 t
b00000000001011 u
b1111 v
1(!
12!
1+"
18"
0<"
1>"
0E"
1M"
1Y"
1q"
14#
15#
#45
0P
0q
02!
0M"
0Y"
04#
05#
#50
b10111010101110101011101010111010 !
b00000000000000000001111111111111 $
16
b10111010101110101011101010111010 ?
1@
1I
b01 L
1P
1S
b11111111000111110000000000000000 U
b11101010111010 V
b00000000000001 W
b1100 Y
b00000000000000000001111111111111 Z
1q
1s
b11111111000111110000000000000000 t
b00000000000001 u
b1100 v
1)!
b00000000000000000001111111111111 /!
b10111010101110101011101010111010 0!
12!
1,"
1M"
1Y"
1r"
14#
15#
#55
0P
0q
02!
0M"
0Y"
04#
05#
#60
b00000000000000000001101000010000 $
05
06
b00000000000000000001101000010000 7
19
0@
b00000000000000000001101000010000 A
1C
1P
b00000000000111111111111100011111 U
b00000000001011 W
b0111 Y
b00000000000000000001101000010000 Z
b00011111 ^
b11111111 _
b111111111111111111111111111111111111111100010000111111111111111111111111111111111111111111111111 o
b000111110001111100011111000111110001101000011111000111110001111100011111000111110001111100011111 p
1q
b00000000000111111111111100011111 t
b00000000001011 u
b0111 v
0(!
0)!
b00000000000000000001101000010000 *!
1,!
b00000000000000000001101000010000 /!
12!
b00000000000000000001101000010000 u!
1v!
0+"
0,"
b00000000000000000001101000010000 -"
1/"
08"
1@"
1M"
1Y"
b10100001 Z"
b0101 \"
1^"
0q"
0r"
b00000000000000000001101000010000 s"
1u"
1~"
b00000000000000000001101000010000 "#
1##
b10 '#
b0011 *#
b10100001 .#
10#
b0101 1#
14#
15#
#65
0P
0q
02!
0M"
0Y"
04#
05#
#70
b00000000000000000000000000000000 !
b00000000000000000000000000000000 $
b00000001 '
b10111010101110101011101010111100 2
b00000001 3
b00000000000000000000000000000000 7
09
b10111010101110101011101010111100 ?
b00000000000000000000000000000000 A
0C
0I
b00000001 K
1P
b11111111111011111110111111111111 U
b00000000000000 V
b00000000011111 W
b1111 Y
b00000000000000000000000000000000 Z
b00011111 f
b11111111 g
b00011111 h
b111111110000000011111111000000001111111100000000111111110000000011111111111111111111111111111111 o
b000000000001111100000000000111110000000000011111000000000001111100011111000111110001111100011111 p
1q
b11111111111011111110111111111111 t
b00000000011111 u
b1111 v
b00000001 x
b10111010101110101011101010111100 %!
b00000001 &!
b00000000000000000000000000000000 *!
0,!
b00000000000000000000000000000000 /!
b00000000000000000000000000000000 0!
12!
b00000001 n!
1s!
b10111010101110101011101010111100 t!
b00000000000000000000000000000000 u!
0v!
b00000001 {!
b10111010101110101011101010111100 ("
b00000001 )"
b00000000000000000000000000000000 -"
0/"
b10111010101110101011101010111100 7"
0>"
0@"
1M"
b11 Q"
1Y"
b00000000 Z"
b0000 \"
b00000001 c"
b10111010101110101011101010111100 n"
b00000001 o"
b00000000000000000000000000000000 s"
0u"
b00000001 w"
b10111010101110101011101010111100 }"
0~"
1!#
b00000000000000000000000000000000 "#
0##
b10 &#
b00100 (#
b0011 )#
b00000001 -#
b00000000 .#
00#
b0000 1#
b00001 2#
14#
15#
#75
0P
0q
02!
0M"
0Y"
04#
05#
#80
b00000000000000001110111111101111 $
1P
b11101111111011111111111111111111 U
b00000000001010 W
b0011 Y
b00000000000000001110111111101111 Z
b11101111 [
b11101111 \
b11111111 ]
b111111110000000011111111000000001111111100000000111111110000000011111111000000001111111100000000 o
b000000000001111100000000000111110000000000011111000000000001111100000000000111110000000000011111 p
1q
b11101111111011111111111111111111 t
b00000000001010 u
b0011 v
b00000000000000001110111111101111 /!
12!
0s!
1D"
1F"
1M"
1Y"
0!#
14#
15#
#85
0P
0q
02!
0M"
0Y"
04#
05#
#90
1P
0S
b11111111000000000000000000000000 U
b00000000011101 W
b1000 Y
b11111111 e
b11111111 f
1q
0s
b11111111000000000000000000000000 t
b00000000011101 u
b1000 v
12!
1<"
0D"
1E"
0F"
1M"
1Y"
14#
15#
#95
0P
0q
02!
0M"
0Y"
04#
05#
#100
15
1P
b00000000000000000000000000000000 U
b00000000000001 W
b0000 Y
1q
b00000000000000000000000000000000 t
b00000000000001 u
b0000 v
1(!
12!
1+"
18"
0<"
1>"
0E"
1M"
1Y"
1q"
14#
15#
#105
0P
0q
02!
0M"
0Y"
04#
05#
#110
b10111010101110101011101010111100 !
b00000000000000000000111010000000 $
16
1@
b00000000000000000000000000000100 G
1I
b00000000 K
b00000001 N
1P
b11101010111100 V
b00000000000000000000111010000000 Z
b111111110000000011111111100000001111111100000000111111110000000011111111000000001111111100000000 o
b000000000001111100001110000111110000000000011111000000000001111100000000000111110000000000011111 p
1q
1)!
b00000000000000000000111010000000 /!
b10111010101110101011101010111100 0!
12!
1,"
1M"
1Y"
0^"
1r"
14#
15#
#115
0P
0q
02!
0M"
0Y"
04#
05#
#120
05
06
b00000000000000000000111010000000 7
19
0@
b00000000000000000000111010000000 A
1C
1P
1q
0(!
0)!
b00000000000000000000111010000000 *!
1,!
12!
b00000000000000000000111010000000 u!
1v!
0+"
0,"
b00000000000000000000111010000000 -"
1/"
08"
1@"
1M"
1Y"
0q"
0r"
b00000000000000000000111010000000 s"
1u"
b00000000000000000000111010000000 "#
1##
03#
14#
15#
