single_burst_bug.vcd
$date Thu Nov  9 12:42:46 2023
 $end
$version JasperGold $end
$timescale 1 ns $end
$scope module packet_builder $end
$scope module master_axi_cont_ctrl $end
$var wire 1 ! \:tmp_abstr_free_x_:md_0(11) $end
$var wire 1 " \:tmp_abstr_free_x_:md_0(3) $end
$var wire 1 # \:tmp_abstr_free_z_:md_0(30) $end
$var wire 1 $ \:tmp_abstr_free_z_:md_0(10) $end
$var wire 1 % \:tmp_abstr_free_x_:md_0(10) $end
$var wire 1 & \:tmp_abstr_free_z_:md_0(9) $end
$var wire 1 ' \:tmp_abstr_free_x_:md_0(9) $end
$var wire 1 ( \:tmp_abstr_free_x_:md_0(8) $end
$var wire 1 ) \:tmp_abstr_free_z_:md_0(8) $end
$var wire 1 * \:tmp_abstr_free_z_:md_0(7) $end
$var wire 1 + \:tmp_abstr_free_z_:md_0(14) $end
$var wire 1 , \:tmp_abstr_free_x_:md_0(14) $end
$var wire 1 - \:tmp_abstr_free_z_:md_0(13) $end
$var wire 1 . \:tmp_abstr_free_x_:md_0(13) $end
$var wire 1 / \:tmp_abstr_free_z_:md_0(12) $end
$var wire 1 0 \:tmp_abstr_free_x_:md_0(12) $end
$var wire 1 1 \:tmp_abstr_free_z_:md_0(11) $end
$var wire 1 2 \:tmp_abstr_free_z_:md_0(18) $end
$var wire 1 3 \:tmp_abstr_free_x_:md_0(18) $end
$var wire 1 4 \:tmp_abstr_free_z_:md_0(17) $end
$var wire 1 5 \:tmp_abstr_free_x_:md_0(17) $end
$var wire 1 6 \:tmp_abstr_free_z_:md_0(16) $end
$var wire 1 7 \:tmp_abstr_free_x_:md_0(16) $end
$var wire 1 8 \:tmp_abstr_free_z_:md_0(15) $end
$var wire 1 9 \:tmp_abstr_free_x_:md_0(15) $end
$var wire 1 : \:tmp_abstr_free_x_:md_0(21) $end
$var wire 1 ; \:tmp_abstr_free_z_:md_0(0) $end
$var wire 1 < \:tmp_abstr_free_x_:md_0(0) $end
$var wire 1 = \:tmp_abstr_free_x_:md_0(6) $end
$var wire 1 > \:tmp_abstr_free_z_:md_0(1) $end
$var wire 1 ? \:tmp_abstr_free_x_:md_0(4) $end
$var wire 1 @ \:tmp_abstr_free_z_:md_0(4) $end
$var wire 1 A \:tmp_abstr_free_x_:md_0(5) $end
$var wire 1 B \:tmp_abstr_free_z_:md_0(5) $end
$var wire 1 C \:tmp_abstr_free_z_:md_0(6) $end
$var wire 1 D \:tmp_abstr_free_z_:md_0(3) $end
$var wire 1 E \:tmp_abstr_free_x_:md_0(7) $end
$var wire 1 F \:tmp_abstr_free_z_:md_0(20) $end
$var wire 32 G AXI_BASE_ADDRESS_I [31:0] $end
$var wire 8 H AXI_BURST_LEN [7:0] $end
$var wire 1 I AXI_WRITE_INIT_I $end
$var wire 32 J AXI_WRITE_ADDRESS_I [31:0] $end
$var wire 32 K AXI_WRITE_DATA_I [31:0] $end
$var wire 4 L AXI_WRITE_STRB_I [3:0] $end
$var wire 1 M AXI_WRITE_RDY_O $end
$var wire 1 N AXI_WRITE_DONE_O $end
$var wire 1 O AXI_READ_INIT_I $end
$var wire 32 P AXI_READ_ADDRESS_I [31:0] $end
$var wire 32 Q AXI_READ_DATA_O [31:0] $end
$var wire 1 R AXI_READ_VLD_O $end
$var wire 1 S AXI_READ_RDY_I $end
$var wire 1 T AXI_READ_LAST_O $end
$var wire 1 U M_AXI_ARESETN $end
$var wire 32 V M_AXI_AWADDR [31:0] $end
$var wire 8 W M_AXI_AWLEN [7:0] $end
$var wire 3 X M_AXI_AWSIZE [2:0] $end
$var wire 2 Y M_AXI_AWBURST [1:0] $end
$var wire 1 Z M_AXI_AWVALID $end
$var wire 1 [ M_AXI_AWREADY $end
$var wire 32 \ M_AXI_WDATA [31:0] $end
$var wire 4 ] M_AXI_WSTRB [3:0] $end
$var wire 1 ^ M_AXI_WLAST $end
$var wire 1 _ M_AXI_WVALID $end
$var wire 1 ` M_AXI_WREADY $end
$var wire 1 a M_AXI_BVALID $end
$var wire 1 b M_AXI_BREADY $end
$var wire 32 c M_AXI_ARADDR [31:0] $end
$var wire 8 d M_AXI_ARLEN [7:0] $end
$var wire 3 e M_AXI_ARSIZE [2:0] $end
$var wire 2 f M_AXI_ARBURST [1:0] $end
$var wire 1 g M_AXI_ARVALID $end
$var wire 1 h M_AXI_ARREADY $end
$var wire 32 i M_AXI_RDATA [31:0] $end
$var wire 1 j M_AXI_RLAST $end
$var wire 1 k M_AXI_RVALID $end
$var wire 1 l M_AXI_RREADY $end
$var wire 32 m axi_awaddr [31:0] $end
$var reg 1 n axi_awvalid $end
$var wire 32 o axi_wdata [31:0] $end
$var reg 1 p axi_wlast $end
$var reg 1 q axi_wvalid $end
$var reg 1 r axi_bready $end
$var wire 32 s axi_araddr [31:0] $end
$var reg 1 t axi_arvalid $end
$var wire 1 u axi_rready $end
$var reg 8 v write_index [7:0] $end
$var reg 1 w start_single_burst_write $end
$var reg 1 x start_single_burst_read $end
$var reg 1 y burst_write_active $end
$var reg 1 z burst_read_active $end
$var wire 1 { wnext $end
$var wire 1 | rnext $end
$var reg 1 } init_write_txn_ff $end
$var reg 1 ~ init_write_txn_ff2 $end
$var wire 1 !! init_write_txn_pulse $end
$var reg 1 "! init_read_txn_ff $end
$var reg 1 #! init_read_txn_ff2 $end
$var wire 1 $! init_read_txn_pulse $end
$var wire 1 %! \:tmp_abstr_free_x_:md_0(1) $end
$var wire 1 &! \:tmp_abstr_free_x_:md_0(22) $end
$var wire 1 '! \:tmp_abstr_free_z_:md_0(22) $end
$var wire 1 (! \:tmp_abstr_free_z_:md_0(21) $end
$var wire 1 )! \:tmp_abstr_free_z_:md_0(2) $end
$var wire 1 *! \:tmp_abstr_free_x_:md_0(2) $end
$var wire 1 +! \:tmp_abstr_free_x_:md_0(20) $end
$var wire 1 ,! \:tmp_abstr_free_x_:md_0(19) $end
$var wire 1 -! \:tmp_abstr_free_x_:md_0(27) $end
$var wire 1 .! \:tmp_abstr_free_z_:md_0(19) $end
$var wire 1 /! \:tmp_abstr_free_z_:md_0(26) $end
$var wire 1 0! \:tmp_abstr_free_x_:md_0(26) $end
$var wire 1 1! \:tmp_abstr_free_z_:md_0(25) $end
$var wire 1 2! \:tmp_abstr_free_x_:md_0(25) $end
$var wire 1 3! \:tmp_abstr_free_x_:md_0(24) $end
$var wire 1 4! \:tmp_abstr_free_z_:md_0(24) $end
$var wire 1 5! \:tmp_abstr_free_z_:md_0(23) $end
$var wire 1 6! \:tmp_abstr_free_x_:md_0(31) $end
$var wire 1 7! \:tmp_abstr_free_x_:md_0(30) $end
$var wire 1 8! \:tmp_abstr_free_z_:md_0(29) $end
$var wire 1 9! \:tmp_abstr_free_x_:md_0(29) $end
$var wire 1 :! \:tmp_abstr_free_x_:md_0(23) $end
$var wire 1 ;! \:tmp_abstr_free_x_:md_0(28) $end
$var wire 1 <! \:tmp_abstr_free_z_:md_0(28) $end
$var wire 1 =! \:tmp_abstr_free_z_:md_0(27) $end
$var wire 1 >! \:tmp_abstr_free_z_:md_0(31) $end
$var wire 1 ?! M_AXI_ACLK $end
$upscope $end
$scope module chk_pb $end
$scope module chk_data_integrity $end
$var wire 1 @! reset $end
$var wire 4 A! byte_cnt [3:0] $end
$var wire 4 B! data_sel [3:0] $end
$var wire 32 C! wdata [31:0] $end
$var wire 1 D! wvalid $end
$var wire 1 E! wlast $end
$var wire 1 F! wready $end
$var wire 32 G! rdata [31:0] $end
$var wire 1 H! rlast $end
$var wire 1 I! rvalid $end
$var wire 1 J! rready $end
$var reg 5 K! wpulse_cnt [4:0] $end
$var reg 4 L! rpulse_cnt [3:0] $end
$var wire 1 M! wnext $end
$var wire 1 N! rnext $end
$var wire 4 O! chosen_byte [3:0] $end
$var reg 8 P! chosen_byte_data [7:0] $end
$var reg 5 Q! received_byte [4:0] $end
$var reg 1 R! chosen_packet_arrived $end
$var reg 8 S! received_byte_data [7:0] $end
$var wire 4 T! free_byte_cnt [3:0] $end
$var reg 1 U! ast_packet_integrity $end
$var wire 1 V! clk $end
$upscope $end
$var wire 1 W! reset $end
$var wire 1 X! start_i $end
$var wire 32 Y! addr_in_i [31:0] $end
$var wire 4 Z! byte_cnt_i [3:0] $end
$var wire 4 [! pkt_type_i [3:0] $end
$var wire 1 \! ecc_en_i $end
$var wire 1 ]! crc_en_i $end
$var wire 1 ^! ins_ecc_err_i $end
$var wire 1 _! ins_crc_err_i $end
$var wire 4 `! ecc_val_i [3:0] $end
$var wire 8 a! crc_val_i [7:0] $end
$var wire 3 b! sop_val_i [2:0] $end
$var wire 4 c! data_sel_i [3:0] $end
$var wire 32 d! addr_out_i [31:0] $end
$var wire 1 e! s_axi_awvalid $end
$var wire 1 f! s_axi_awready $end
$var wire 32 g! s_axi_wdata [31:0] $end
$var wire 1 h! s_axi_wlast $end
$var wire 1 i! s_axi_wvalid $end
$var wire 1 j! s_axi_wready $end
$var wire 2 k! s_axi_bresp [1:0] $end
$var wire 1 l! s_axi_bvalid $end
$var wire 1 m! s_axi_bready $end
$var wire 8 n! s_axi_arlen [7:0] $end
$var wire 1 o! s_axi_arvalid $end
$var wire 1 p! s_axi_arready $end
$var wire 32 q! s_axi_rdata [31:0] $end
$var wire 2 r! s_axi_rresp [1:0] $end
$var wire 1 s! s_axi_rlast $end
$var wire 1 t! s_axi_rvalid $end
$var wire 1 u! s_axi_rready $end
$var reg 8 v! arlen [7:0] $end
$var reg 8 w! arlen_cntr [7:0] $end
$var reg 1 x! awready $end
$var reg 1 y! wready $end
$var reg 1 z! bvalid $end
$var reg 1 {! arready $end
$var reg 1 |! rlast $end
$var reg 1 }! rvalid $end
$var reg 2 ~! bresp [1:0] $end
$var reg 2 !" rresp [1:0] $end
$var reg 1 "" axi_awv_awr_flag $end
$var reg 1 #" axi_arv_arr_flag $end
$var wire 1 $" rnext $end
$var wire 1 %" \:func_aux_eq_0:aux_eq $end
$var wire 1 &" \:func_aux_eq_1:aux_eq $end
$var wire 1 '" \:func_aux_eq_2:aux_eq $end
$var wire 1 (" \:func_aux_eq_3:aux_eq $end
$var wire 1 )" \:func_aux_eq_4:aux_eq $end
$var wire 1 *" \:func_aux_eq_5:aux_eq $end
$var wire 1 +" \:func_aux_eq_6:aux_eq $end
$var wire 1 ," \:func_aux_eq_7:aux_eq $end
$var wire 1 -" clk $end
$upscope $end
$scope module fifo_in $end
$var wire 416 ." \:X_1061 [415:0] $end
$var wire 1 /" reset $end
$var wire 1 0" wr_en_i $end
$var wire 32 1" wr_data_i [31:0] $end
$var wire 1 2" rd_pt_rst $end
$var wire 1 3" rd_en_i $end
$var wire 32 4" rd_data_o [31:0] $end
$var reg 32 5" \fifo_data_s(0) [31:0] $end
$var reg 32 6" \fifo_data_s(1) [31:0] $end
$var reg 32 7" \fifo_data_s(2) [31:0] $end
$var reg 32 8" \fifo_data_s(3) [31:0] $end
$var reg 32 9" \fifo_data_s(4) [31:0] $end
$var reg 32 :" \fifo_data_s(5) [31:0] $end
$var reg 32 ;" \fifo_data_s(6) [31:0] $end
$var reg 32 <" \fifo_data_s(7) [31:0] $end
$var reg 32 =" \fifo_data_s(8) [31:0] $end
$var reg 32 >" \fifo_data_s(9) [31:0] $end
$var reg 32 ?" \fifo_data_s(10) [31:0] $end
$var reg 32 @" \fifo_data_s(11) [31:0] $end
$var reg 32 A" \fifo_data_s(12) [31:0] $end
$var reg 32 B" \fifo_data_s(13) [31:0] $end
$var reg 32 C" \fifo_data_s(14) [31:0] $end
$var reg 32 D" \fifo_data_s(15) [31:0] $end
$var reg 32 E" \fifo_data_s(16) [31:0] $end
$var reg 32 F" \fifo_data_s(17) [31:0] $end
$var reg 32 G" \fifo_data_s(18) [31:0] $end
$var reg 5 H" write_index_s [4:0] $end
$var reg 5 I" read_index_s [4:0] $end
$var reg 5 J" fifo_cnt_s [4:0] $end
$var wire 1 K" full_s $end
$var wire 1 L" empty_s $end
$var wire 1 M" clk $end
$upscope $end
$scope module fifo_out $end
$var wire 416 N" \:X_1061 [415:0] $end
$var wire 1 O" reset $end
$var wire 1 P" wr_en_i $end
$var wire 32 Q" wr_data_i [31:0] $end
$var wire 1 R" rd_pt_rst $end
$var wire 1 S" rd_en_i $end
$var wire 32 T" rd_data_o [31:0] $end
$var reg 32 U" \fifo_data_s(0) [31:0] $end
$var reg 32 V" \fifo_data_s(1) [31:0] $end
$var reg 32 W" \fifo_data_s(2) [31:0] $end
$var reg 32 X" \fifo_data_s(3) [31:0] $end
$var reg 32 Y" \fifo_data_s(4) [31:0] $end
$var reg 32 Z" \fifo_data_s(5) [31:0] $end
$var reg 32 [" \fifo_data_s(6) [31:0] $end
$var reg 32 \" \fifo_data_s(7) [31:0] $end
$var reg 32 ]" \fifo_data_s(8) [31:0] $end
$var reg 32 ^" \fifo_data_s(9) [31:0] $end
$var reg 32 _" \fifo_data_s(10) [31:0] $end
$var reg 32 `" \fifo_data_s(11) [31:0] $end
$var reg 32 a" \fifo_data_s(12) [31:0] $end
$var reg 32 b" \fifo_data_s(13) [31:0] $end
$var reg 32 c" \fifo_data_s(14) [31:0] $end
$var reg 32 d" \fifo_data_s(15) [31:0] $end
$var reg 32 e" \fifo_data_s(16) [31:0] $end
$var reg 32 f" \fifo_data_s(17) [31:0] $end
$var reg 32 g" \fifo_data_s(18) [31:0] $end
$var reg 5 h" write_index_s [4:0] $end
$var reg 5 i" read_index_s [4:0] $end
$var reg 5 j" fifo_cnt_s [4:0] $end
$var wire 1 k" full_s $end
$var wire 1 l" empty_s $end
$var wire 1 m" clk $end
$upscope $end
$scope module crc_calc $end
$scope module crc_calc $end
$var wire 8 n" crc_in [7:0] $end
$var wire 8 o" data_in [7:0] $end
$var wire 8 p" crc_out [7:0] $end
$upscope $end
$var wire 1 q" reset $end
$var wire 1 r" start_crc $end
$var wire 2 s" pulse_cnt_max [1:0] $end
$var wire 2 t" vld_bytes_last_pulse_cnt [1:0] $end
$var wire 32 u" data_in [31:0] $end
$var wire 1 v" data_req $end
$var wire 8 w" crc_out [7:0] $end
$var wire 1 x" crc_ready $end
$var reg 3 y" state_reg [2:0] $end
$var wire 3 z" state_next [2:0] $end
$var wire 1 {" shift_s $end
$var reg 5 |" shift_cnt_reg [4:0] $end
$var wire 5 }" shift_cnt_next [4:0] $end
$var reg 2 ~" pulse_cnt_reg [1:0] $end
$var wire 2 !# pulse_cnt_next [1:0] $end
$var reg 8 "# crc_reg [7:0] $end
$var wire 8 ## crc_out_s [7:0] $end
$var reg 8 $# crc_data_in_s [7:0] $end
$var reg 32 %# q_s [31:0] $end
$var wire 1 &# clk $end
$upscope $end
$scope module hamming_calc $end
$var wire 8 '# data_in [7:0] $end
$var wire 4 (# parity_out [3:0] $end
$var wire 1 )# msb_parity_out $end
$var wire 4 *# parity_out_s [3:0] $end
$upscope $end
$var wire 1 +# \:jasper_formal_reset $end
$var wire 1 ,# start_i $end
$var wire 32 -# addr_in_i [31:0] $end
$var wire 4 .# byte_cnt_i [3:0] $end
$var wire 4 /# pkt_type_i [3:0] $end
$var wire 1 0# ecc_en_i $end
$var wire 1 1# crc_en_i $end
$var wire 4 2# ecc_val_i [3:0] $end
$var wire 8 3# crc_val_i [7:0] $end
$var wire 3 4# sop_val_i [2:0] $end
$var wire 4 5# data_sel_i [3:0] $end
$var wire 32 6# addr_out_i [31:0] $end
$var wire 1 7# M_AXI_ARESETN $end
$var wire 32 8# M_AXI_AWADDR [31:0] $end
$var wire 8 9# M_AXI_AWLEN [7:0] $end
$var wire 3 :# M_AXI_AWSIZE [2:0] $end
$var wire 2 ;# M_AXI_AWBURST [1:0] $end
$var wire 1 <# M_AXI_AWVALID $end
$var wire 1 =# M_AXI_AWREADY $end
$var wire 32 ># M_AXI_WDATA [31:0] $end
$var wire 4 ?# M_AXI_WSTRB [3:0] $end
$var wire 1 @# M_AXI_WLAST $end
$var wire 1 A# M_AXI_WVALID $end
$var wire 1 B# M_AXI_WREADY $end
$var wire 1 C# M_AXI_BVALID $end
$var wire 1 D# M_AXI_BREADY $end
$var wire 32 E# M_AXI_ARADDR [31:0] $end
$var wire 8 F# M_AXI_ARLEN [7:0] $end
$var wire 3 G# M_AXI_ARSIZE [2:0] $end
$var wire 2 H# M_AXI_ARBURST [1:0] $end
$var wire 1 I# M_AXI_ARVALID $end
$var wire 1 J# M_AXI_ARREADY $end
$var wire 32 K# M_AXI_RDATA [31:0] $end
$var wire 2 L# M_AXI_RRESP [1:0] $end
$var wire 1 M# M_AXI_RLAST $end
$var wire 1 N# M_AXI_RVALID $end
$var wire 1 O# M_AXI_RREADY $end
$var wire 1 P# fifo_in_wr_en_s $end
$var wire 32 Q# fifo_in_wr_data_s [31:0] $end
$var wire 1 R# fifo_in_rd_pt_rst_s $end
$var wire 1 S# fifo_in_rd_en_s $end
$var wire 32 T# fifo_in_rd_data_s [31:0] $end
$var wire 1 U# fifo_in_rst_s $end
$var wire 1 V# fifo_out_wr_en_s $end
$var wire 32 W# fifo_out_wr_data_next [31:0] $end
$var reg 32 X# fifo_out_wr_data_reg [31:0] $end
$var wire 1 Y# fifo_out_rd_en_s $end
$var wire 32 Z# fifo_out_rd_data_s [31:0] $end
$var wire 1 [# fifo_out_rst_s $end
$var wire 1 \# start_crc_s $end
$var wire 32 ]# shift_data_in_s [31:0] $end
$var wire 1 ^# shift_data_req_s $end
$var wire 8 _# crc_out_s [7:0] $end
$var wire 1 `# crc_ready_s $end
$var wire 8 a# read_burst_len_s [7:0] $end
$var wire 8 b# hamming_data_in_s [7:0] $end
$var wire 4 c# hamming_parity_out_s [3:0] $end
$var wire 1 d# hamming_msb_parity_out_s $end
$var wire 8 e# axi_burst_len_s [7:0] $end
$var wire 32 f# axi_base_address_s [31:0] $end
$var wire 32 g# axi_write_address_s [31:0] $end
$var wire 1 h# axi_write_init_s $end
$var wire 32 i# axi_write_data_s [31:0] $end
$var wire 4 j# axi_write_strb_s [3:0] $end
$var wire 1 k# axi_write_rdy_s $end
$var wire 1 l# axi_write_done_s $end
$var wire 32 m# axi_read_address_s [31:0] $end
$var wire 1 n# axi_read_init_s $end
$var wire 32 o# axi_read_data_s [31:0] $end
$var wire 1 p# axi_read_vld_s $end
$var wire 1 q# axi_read_rdy_s $end
$var wire 1 r# axi_read_last_s $end
$var reg 4 s# state_reg [3:0] $end
$var wire 4 t# state_next [3:0] $end
$var reg 8 u# crc_reg [7:0] $end
$var wire 8 v# crc_next [7:0] $end
$var reg 32 w# pulse_data_reg [31:0] $end
$var wire 32 x# pulse_data_next [31:0] $end
$var reg 8 y# pulse_cnt_reg [7:0] $end
$var wire 8 z# pulse_cnt_next [7:0] $end
$var wire 8 {# write_burst_len_op0_s [7:0] $end
$var wire 5 |# write_byte_cnt_op0_s [4:0] $end
$var wire 4 }# temp0_op1_s [3:0] $end
$var wire 4 ~# temp1_op1_s [3:0] $end
$var wire 2 !$ written_pulse_bytes_next [1:0] $end
$var reg 2 "$ written_pulse_bytes_reg [1:0] $end
$var wire 2 #$ vld_bytes_last_pulse_cnt_op0_s [1:0] $end
$var reg 2 $$ cycles_to_build_op0_reg [1:0] $end
$var wire 4 %$ write_byte_cnt_op1_s [3:0] $end
$var wire 8 &$ write_burst_len_op1_s [7:0] $end
$var wire 2 '$ vld_bytes_last_pulse_cnt_op1_s [1:0] $end
$var reg 2 ($ cycles_to_build_op1_reg [1:0] $end
$var wire 5 )$ write_byte_cnt_op2_s [4:0] $end
$var wire 8 *$ write_burst_len_op2_s [7:0] $end
$var wire 2 +$ vld_bytes_last_pulse_cnt_op2_s [1:0] $end
$var reg 3 ,$ cycles_to_build_op2_reg [2:0] $end
$var reg 8 -$ write_burst_len_reg [7:0] $end
$var reg 2 .$ vld_bytes_last_pulse_cnt_reg [1:0] $end
$var wire 1 /$ single_write_burst $end
$var wire 16 0$ header_s [15:0] $end
$var wire 4 1$ ecc_s [3:0] $end
$var wire 1 2$ \:jasper_formal_clock $end
$var wire 1 3$ M_AXI_ACLK $end
$upscope $end
$enddefinitions $end
#0
1!
1"
1#
1$
1%
1&
1'
1(
1)
1*
1+
1,
1-
1.
1/
10
11
12
13
14
15
16
17
18
19
1:
1;
1<
1=
1>
1?
1@
1A
1B
1C
1D
1E
1F
b00000000000000000000000000000000 G
b00000000 H
0I
b00000000000000000000000000000000 J
b00000000000000000000000000000000 K
b0000 L
0M
0N
0O
b00000000000000000000000000000000 P
b11011110101011011011111011101111 Q
0R
0S
0T
0U
b00000000000000000000000000000000 V
b00000000 W
b010 X
b01 Y
0Z
0[
b00000000000000000000000000000000 \
b0000 ]
0^
0_
0`
0a
0b
b00000000000000000000000000000000 c
b00000000 d
b010 e
b01 f
0g
0h
b11011110101011011011111011101111 i
0j
0k
0l
b00000000000000000000000000000000 m
0n
b00000000000000000000000000000000 o
0p
0q
0r
b00000000000000000000000000000000 s
0t
0u
b00000000 v
0w
0x
0y
0z
0{
0|
0}
0~
0!!
0"!
0#!
0$!
1%!
1&!
1'!
1(!
1)!
1*!
1+!
1,!
1-!
1.!
1/!
10!
11!
12!
13!
14!
15!
16!
17!
18!
19!
1:!
1;!
1<!
1=!
1>!
1?!
0@!
b0000 A!
b0010 B!
b00000000000000000000000000000000 C!
0D!
0E!
0F!
b11011110101011011011111011101111 G!
0H!
0I!
0J!
b00000 K!
b0000 L!
0M!
0N!
b0000 O!
b00000000 P!
b00000 Q!
0R!
b00000000 S!
b0000 T!
1U!
1V!
0W!
1X!
b10111010101110101011101010111010 Y!
b0000 Z!
b1010 [!
1\!
1]!
0^!
0_!
b0000 `!
b11001100 a!
b111 b!
b0010 c!
b10111010101110101011101010111010 d!
0e!
0f!
b00000000000000000000000000000000 g!
0h!
0i!
0j!
b00 k!
0l!
0m!
b00000000 n!
0o!
0p!
b11011110101011011011111011101111 q!
b00 r!
0s!
0t!
0u!
b00000000 v!
b00000000 w!
0x!
0y!
0z!
0{!
0|!
0}!
b00 ~!
b00 !"
0""
0#"
0$"
1%"
1&"
1'"
1("
1)"
1*"
1+"
1,"
1-"
b11111111111111111111111111111111111111111111111111111111111111111111111111111111111111111111111111111111111111111111111111111111111111111111111111111111111111111111111111111111111111111111111111111111111111111111111111111111111111111111111111111111111111111111111111111111111111111111111111111111111111111111111111111111111111111111111111111111111111111111111111111111111111111111111111111111111111111111111111111111 ."
1/"
00"
b00000000000000000000000000000000 1"
02"
03"
b00000000000000000000000000000000 4"
b00000000000000000000000000000000 5"
b00000000000000000000000000000000 6"
b00000000000000000000000000000000 7"
b00000000000000000000000000000000 8"
b00000000000000000000000000000000 9"
b00000000000000000000000000000000 :"
b00000000000000000000000000000000 ;"
b00000000000000000000000000000000 <"
b00000000000000000000000000000000 ="
b00000000000000000000000000000000 >"
b00000000000000000000000000000000 ?"
b00000000000000000000000000000000 @"
b00000000000000000000000000000000 A"
b00000000000000000000000000000000 B"
b00000000000000000000000000000000 C"
b00000000000000000000000000000000 D"
b00000000000000000000000000000000 E"
b00000000000000000000000000000000 F"
b00000000000000000000000000000000 G"
b00000 H"
b00000 I"
b00000 J"
0K"
1L"
1M"
b11111111111111111111111111111111111111111111111111111111111111111111111111111111111111111111111111111111111111111111111111111111111111111111111111111111111111111111111111111111111111111111111111111111111111111111111111111111111111111111111111111111111111111111111111111111111111111111111111111111111111111111111111111111111111111111111111111111111111111111111111111111111111111111111111111111111111111111111111111111 N"
1O"
0P"
b00000000000000000000000000000000 Q"
0R"
0S"
b00000000000000000000000000000000 T"
b00000000000000000000000000000000 U"
b00000000000000000000000000000000 V"
b00000000000000000000000000000000 W"
b00000000000000000000000000000000 X"
b00000000000000000000000000000000 Y"
b00000000000000000000000000000000 Z"
b00000000000000000000000000000000 ["
b00000000000000000000000000000000 \"
b00000000000000000000000000000000 ]"
b00000000000000000000000000000000 ^"
b00000000000000000000000000000000 _"
b00000000000000000000000000000000 `"
b00000000000000000000000000000000 a"
b00000000000000000000000000000000 b"
b00000000000000000000000000000000 c"
b00000000000000000000000000000000 d"
b00000000000000000000000000000000 e"
b00000000000000000000000000000000 f"
b00000000000000000000000000000000 g"
b00000 h"
b00000 i"
b00000 j"
0k"
1l"
1m"
b00000000 n"
b00000000 o"
b00000000 p"
0q"
0r"
b00 s"
b00 t"
b00000000000000000000000000000000 u"
0v"
b00000000 w"
0x"
b000 y"
b000 z"
0{"
b00000 |"
b00000 }"
b00 ~"
b00 !#
b00000000 "#
b00000000 ##
b00000000 $#
b00000000000000000000000000000000 %#
1&#
b10100000 '#
b0110 (#
0)#
b0110 *#
0+#
1,#
b10111010101110101011101010111010 -#
b0000 .#
b1010 /#
10#
11#
b0000 2#
b11001100 3#
b111 4#
b0010 5#
b10111010101110101011101010111010 6#
07#
b00000000000000000000000000000000 8#
b00000000 9#
b010 :#
b01 ;#
0<#
0=#
b00000000000000000000000000000000 >#
b0000 ?#
0@#
0A#
0B#
0C#
0D#
b00000000000000000000000000000000 E#
b00000000 F#
b010 G#
b01 H#
0I#
0J#
b11011110101011011011111011101111 K#
b00 L#
0M#
0N#
0O#
0P#
b00000000000000000000000000000000 Q#
0R#
0S#
b00000000000000000000000000000000 T#
1U#
0V#
b00000000000000000000000000000000 W#
b00000000000000000000000000000000 X#
0Y#
b00000000000000000000000000000000 Z#
1[#
0\#
b00000000000000000000000000000000 ]#
0^#
b00000000 _#
0`#
b00000000 a#
b10100000 b#
b0110 c#
0d#
b00000000 e#
b00000000000000000000000000000000 f#
b00000000000000000000000000000000 g#
0h#
b00000000000000000000000000000000 i#
b0000 j#
0k#
0l#
b00000000000000000000000000000000 m#
0n#
b11011110101011011011111011101111 o#
0p#
0q#
0r#
b0000 s#
b0001 t#
b00000000 u#
b00000000 v#
b00000000000000000000000000000000 w#
b00000000000000000000000000000000 x#
b00000000 y#
b00000000 z#
b00000000 {#
b00011 |#
b0000 }#
b0000 ~#
b00 !$
b00 "$
b11 #$
b00 $$
b0011 %$
b00000000 &$
b11 '$
b00 ($
b00011 )$
b00000000 *$
b11 +$
b000 ,$
b00000000 -$
b00 .$
1/$
b1110101000000110 0$
b0110 1$
12$
13$
#5
0?!
0V!
0-"
0M"
0m"
0&#
02$
03$
#10
1O
b10111010101110101011101010111010 P
1S
b10111010101110101011101010111010 c
1l
b10111010101110101011101010111010 s
1u
1?!
1J!
b00010 Q!
1V!
1u!
1-"
0/"
1M"
0O"
1m"
1&#
b10111010101110101011101010111010 E#
1O#
0U#
0[#
b10111010101110101011101010111010 m#
1n#
1q#
b0001 s#
b11 .$
12$
13$
#15
0?!
0V!
0-"
0M"
0m"
0&#
02$
03$
#20
1"!
1$!
1?!
1V!
1-"
1M"
1m"
1&#
12$
13$
#25
0?!
0V!
0-"
0M"
0m"
0&#
02$
03$
#30
1x
1#!
0$!
1?!
1V!
1-"
1M"
1m"
1&#
12$
13$
#35
0?!
0V!
0-"
0M"
0m"
0&#
02$
03$
#40
1g
1t
0x
1z
1?!
1V!
1o!
1-"
1M"
1m"
1&#
1I#
12$
13$
#45
0?!
0V!
0-"
0M"
0m"
0&#
02$
03$
#50
1h
1?!
1V!
1p!
1{!
1#"
1-"
1M"
1m"
1&#
1J#
12$
13$
#55
0?!
0V!
0-"
0M"
0m"
0&#
02$
03$
#60
1R
0g
0h
1k
0t
1|
1?!
1I!
1N!
1V!
0o!
0p!
1t!
0{!
1}!
1$"
1-"
10"
b11011110101011011011111011101111 1"
1M"
1m"
1&#
0I#
0J#
1N#
1P#
b11011110101011011011111011101111 Q#
1p#
12$
13$
#65
0?!
0V!
0-"
0M"
0m"
0&#
02$
03$
#70
0R
1T
1j
0k
0|
1?!
1H!
0I!
b0001 L!
0N!
b11101111 P!
1V!
1s!
0t!
1|!
0}!
0#"
0$"
1-"
00"
b00000000000000000000000000000000 1"
b11011110101011011011111011101111 4"
b11011110101011011011111011101111 5"
b00001 H"
b00001 J"
0L"
1M"
1m"
b11011110101011011011111011101111 u"
1&#
1M#
0N#
0P#
b00000000000000000000000000000000 Q#
b11011110101011011011111011101111 T#
b11011110101011011011111011101111 ]#
0p#
1r#
12$
13$
#75
0?!
0V!
0-"
0M"
0m"
0&#
02$
03$
#80
1?!
1V!
1-"
1M"
1m"
b11011110101011011011111011101111 %#
1&#
12$
13$
